%!Adobe-FontList 1.20
%Locale:0x410

%BeginFont
Handler:DirectoryHandler
FontType:Invalid
OutlineFileName:C:\Users\smile\Google Drive\GAME_DESIGN_2019\Font\desktop.ini
FileModTime:1561056656
%EndFont

%BeginFont
Handler:DirectoryHandler
FontType:TrueType
FontName:Helvetica-Light
FamilyName:Helvetica
StyleName:Light
FullName:Helvetica Light
MenuName:Helvetica
StyleBits:0
WritingScript:Roman
OutlineFileName:C:\Users\smile\Google Drive\GAME_DESIGN_2019\Font\Helvetica-Light.ttf
DataFormat:sfntData
hasSVG:no
VariableFontType:NonVariableFont
FileLength:161716
FileModTime:1561022764
WeightClass:300
WidthClass:5
AngleClass:0
NameArray:0,Mac,18,Helvetica Light
NameArray:0,Mac,4,Helvetica Light
NameArray:0,Win,1,Helvetica
%EndFont

%BeginFont
Handler:DirectoryHandler
FontType:Type1
FontName:HillHouse
FamilyName:Hill House
StyleName:Medium
FullName:Hill House
MenuName:Hill House
StyleBits:0
WritingScript:Roman
OutlineFileName:C:\Users\smile\Google Drive\GAME_DESIGN_2019\Font\Hill_House.otf
DataFormat:sfntData
UsesStandardEncoding:yes
isCFF:yes
hasSVG:no
VariableFontType:NonVariableFont
FileLength:7032
FileModTime:1561022656
WeightClass:500
WidthClass:5
AngleClass:0
NameArray:0,Mac,4,Hill House
NameArray:0,Win,1,Hill House
%EndFont

%BeginFont
Handler:DirectoryHandler
FontType:TrueType
FontName:Willow
FamilyName:Willow
StyleName:Regular
FullName:Willow
MenuName:Willow
StyleBits:0
WritingScript:Roman
OutlineFileName:C:\Users\smile\Google Drive\GAME_DESIGN_2019\Font\willow__.ttf
DataFormat:sfntData
hasSVG:no
VariableFontType:NonVariableFont
FileLength:50476
FileModTime:1561022657
WeightClass:500
WidthClass:5
AngleClass:0
NameArray:0,Mac,4,Willow
NameArray:0,Win,1,Willow
%EndFont

