%!Adobe-FontList 1.20
%Locale:0x410

%BeginFont
Handler:DirectoryHandler
FontType:Type1
FontName:AmericanHorrorStory-Regular
FamilyName:American Horror Story
StyleName:Regular
FullName:American Horror Story
MenuName:American Horror Story
StyleBits:0
WritingScript:Roman
OutlineFileName:D:\Users\Angelica\Desktop\GAME DESIGN\Carte\Cartella CARTE EVENTO E CONOSCENZA\Document fonts\AmericanHorrorStory-Regular.otf
DataFormat:sfntData
UsesStandardEncoding:yes
isCFF:yes
hasSVG:no
VariableFontType:NonVariableFont
FileLength:61060
FileModTime:1558610789
WeightClass:400
WidthClass:5
AngleClass:0
NameArray:0,Mac,4,American Horror Story
NameArray:0,Win,1,American Horror Story
%EndFont

%BeginFont
Handler:DirectoryHandler
FontType:TrueType
FontName:Raleway
FamilyName:Raleway
StyleName:Regular
FullName:Raleway
MenuName:Raleway
StyleBits:0
WritingScript:Roman
OutlineFileName:D:\Users\Angelica\Desktop\GAME DESIGN\Carte\Cartella CARTE EVENTO E CONOSCENZA\Document fonts\raleway.regular (1).ttf
DataFormat:sfntData
hasSVG:no
VariableFontType:NonVariableFont
FileLength:130128
FileModTime:1556799933
WeightClass:400
WidthClass:5
AngleClass:0
NameArray:0,Mac,18,Raleway
NameArray:0,Mac,4,Raleway
NameArray:0,Win,1,Raleway
%EndFont

