%!Adobe-FontList 1.19
%Locale:0x410

%BeginFont
Handler:DirectoryHandler
FontType:TrueType
FontName:Bebas
FamilyName:Bebas
StyleName:Regular
FullName:Bebas
MenuName:Bebas
StyleBits:0
WritingScript:Roman
OutlineFileName:C:\Users\smile\Desktop\GRUPPO 3_26.03.19\Document fonts\BEBAS.ttf
DataFormat:sfntData
hasSVG:no
VariableFontType:NonVariableFont
FileLength:46628
FileModTime:1553359521
WeightClass:400
WidthClass:5
AngleClass:0
NameArray:0,Mac,18,Bebas
NameArray:0,Mac,4,Bebas
NameArray:0,Win,1,Bebas
%EndFont

%BeginFont
Handler:DirectoryHandler
FontType:TrueType
FontName:BebasNeue-Regular
FamilyName:Bebas Neue
StyleName:Regular
FullName:Bebas Neue Regular
MenuName:Bebas Neue
StyleBits:0
WritingScript:Roman
OutlineFileName:C:\Users\smile\Desktop\GRUPPO 3_26.03.19\Document fonts\BebasNeue-Regular.ttf
DataFormat:sfntData
hasSVG:no
VariableFontType:NonVariableFont
FileLength:60576
FileModTime:1553359521
WeightClass:400
WidthClass:5
AngleClass:0
NameArray:0,Mac,4,Bebas Neue Regular
NameArray:0,Win,1,Bebas Neue
%EndFont

%BeginFont
Handler:DirectoryHandler
FontType:TrueType
FontName:Gadugi
FamilyName:Gadugi
StyleName:Regular
FullName:Gadugi
MenuName:Gadugi
StyleBits:0
WritingScript:Roman
OutlineFileName:C:\Users\smile\Desktop\GRUPPO 3_26.03.19\Document fonts\gadugi.ttf
DataFormat:sfntData
hasSVG:no
VariableFontType:NonVariableFont
FileLength:247240
FileModTime:1553359521
WeightClass:400
WidthClass:5
AngleClass:0
NameArray:0,Mac,4,Gadugi
NameArray:0,Win,1,Gadugi
%EndFont

%BeginFont
Handler:DirectoryHandler
FontType:TrueType
FontName:Gadugi-Bold
FamilyName:Gadugi
StyleName:Bold
FullName:Gadugi Bold
MenuName:Gadugi
StyleBits:2
WritingScript:Roman
OutlineFileName:C:\Users\smile\Desktop\GRUPPO 3_26.03.19\Document fonts\gadugib.ttf
DataFormat:sfntData
hasSVG:no
VariableFontType:NonVariableFont
FileLength:244912
FileModTime:1553359521
WeightClass:700
WidthClass:5
AngleClass:0
NameArray:0,Mac,4,Gadugi Bold
NameArray:0,Win,1,Gadugi
%EndFont

%BeginFont
Handler:DirectoryHandler
FontType:Type1
FontName:MinionPro-Regular
FamilyName:Minion Pro
StyleName:Regular
FullName:Minion Pro
MenuName:Minion Pro
StyleBits:0
WritingScript:Roman
OutlineFileName:C:\Users\smile\Desktop\GRUPPO 3_26.03.19\Document fonts\MinionPro-Regular.otf
DataFormat:sfntData
UsesStandardEncoding:yes
isCFF:yes
hasSVG:no
VariableFontType:NonVariableFont
FileLength:218640
FileModTime:1553359521
WeightClass:400
WidthClass:5
AngleClass:0
DesignSize:110
NameArray:0,Mac,4,Minion Pro
NameArray:0,Win,1,Minion Pro
%EndFont

